<svg width="24" height="24" viewBox="0 0 24 24" fill="none" xmlns="http://www.w3.org/2000/svg">
<path fill-rule="evenodd" clip-rule="evenodd" d="M3.5 5V20L5 20L6.5 20H21V18L6.5 18V5H3.5Z" fill="#6C6F80"/>
<path fill-rule="evenodd" clip-rule="evenodd" d="M8 7C8 6.44772 8.44772 6 9 6L15 6C15.5523 6 16 6.44772 16 7C16 7.55228 15.5523 8 15 8L9 8C8.44772 8 8 7.55228 8 7Z" fill="#6C6F80"/>
<path fill-rule="evenodd" clip-rule="evenodd" d="M13 11C13 10.4477 13.4477 10 14 10L20 10C20.5523 10 21 10.4477 21 11C21 11.5523 20.5523 12 20 12L14 12C13.4477 12 13 11.5523 13 11Z" fill="#6C6F80"/>
<path fill-rule="evenodd" clip-rule="evenodd" d="M10 15C10 14.4477 10.4477 14 11 14L17 14C17.5523 14 18 14.4477 18 15C18 15.5523 17.5523 16 17 16L11 16C10.4477 16 10 15.5523 10 15Z" fill="#6C6F80"/>
</svg>
