<svg width="212" height="40" viewBox="0 0 212 40" fill="none" xmlns="http://www.w3.org/2000/svg">
<path fill-rule="evenodd" clip-rule="evenodd" d="M28.9998 34V5.26343H34.2246V34H28.9998Z" fill="white"/>
<path fill-rule="evenodd" clip-rule="evenodd" d="M45.9809 34V5.26343H47.2871V34H45.9809Z" fill="white"/>
<path fill-rule="evenodd" clip-rule="evenodd" d="M34.225 5.26344L59.043 5.26344L59.043 7.87585L34.225 7.87585L34.225 5.26344Z" fill="white"/>
<path fill-rule="evenodd" clip-rule="evenodd" d="M38.1436 13.7537C38.1436 12.6716 38.9477 11.7944 39.9396 11.7944L50.7158 11.7944C51.7077 11.7944 52.5118 12.6716 52.5118 13.7537C52.5118 14.8358 51.7077 15.7131 50.7158 15.7131L39.9396 15.7131C38.9477 15.7131 38.1436 14.8358 38.1436 13.7537Z" fill="white"/>
<path fill-rule="evenodd" clip-rule="evenodd" d="M43.3682 21.591C43.3682 20.5089 44.2454 19.6317 45.3275 19.6317L57.0833 19.6317C58.1654 19.6317 59.0427 20.5089 59.0427 21.591C59.0427 22.6731 58.1654 23.5503 57.0833 23.5503L45.3275 23.5503C44.2454 23.5503 43.3682 22.6731 43.3682 21.591Z" fill="white"/>
<path fill-rule="evenodd" clip-rule="evenodd" d="M40.7559 28.122C40.7559 27.0399 41.56 26.1627 42.5519 26.1627L53.3281 26.1627C54.32 26.1627 55.1241 27.0399 55.1241 28.122C55.1241 29.2041 54.32 30.0813 53.3281 30.0813L42.5519 30.0813C41.56 30.0813 40.7559 29.2041 40.7559 28.122Z" fill="white"/>
<path d="M81.224 20.252C80.076 20.252 79.033 19.979 78.095 19.433C77.157 18.887 76.408 18.089 75.848 17.039C75.302 15.975 75.029 14.687 75.029 13.175C75.029 11.677 75.309 10.396 75.869 9.332C76.443 8.254 77.206 7.435 78.158 6.875C79.11 6.301 80.16 6.014 81.308 6.014C82.176 6.014 82.946 6.189 83.618 6.539C84.29 6.889 84.843 7.295 85.277 7.757L83.975 9.332C83.625 8.968 83.233 8.681 82.799 8.471C82.379 8.247 81.903 8.135 81.371 8.135C80.629 8.135 79.964 8.338 79.376 8.744C78.802 9.136 78.347 9.703 78.011 10.445C77.689 11.187 77.528 12.076 77.528 13.112C77.528 14.68 77.871 15.912 78.557 16.808C79.243 17.69 80.16 18.131 81.308 18.131C81.924 18.131 82.47 18.005 82.946 17.753C83.422 17.487 83.856 17.144 84.248 16.724L85.55 18.257C84.99 18.901 84.346 19.398 83.618 19.748C82.904 20.084 82.106 20.252 81.224 20.252ZM87.8426 20V6.266H90.2786V17.942H95.9906V20H87.8426ZM103.061 20.252C101.871 20.252 100.821 19.965 99.9114 19.391C99.0014 18.803 98.2874 17.977 97.7694 16.913C97.2654 15.835 97.0134 14.554 97.0134 13.07C97.0134 11.586 97.2654 10.319 97.7694 9.269C98.2874 8.219 99.0014 7.414 99.9114 6.854C100.821 6.294 101.871 6.014 103.061 6.014C104.265 6.014 105.322 6.294 106.232 6.854C107.142 7.414 107.849 8.219 108.353 9.269C108.871 10.319 109.13 11.586 109.13 13.07C109.13 14.554 108.871 15.835 108.353 16.913C107.849 17.977 107.142 18.803 106.232 19.391C105.322 19.965 104.265 20.252 103.061 20.252ZM103.061 18.131C104.139 18.131 105 17.676 105.644 16.766C106.288 15.842 106.61 14.61 106.61 13.07C106.61 11.53 106.288 10.326 105.644 9.458C105 8.576 104.139 8.135 103.061 8.135C101.983 8.135 101.122 8.576 100.478 9.458C99.8344 10.326 99.5124 11.53 99.5124 13.07C99.5124 14.61 99.8344 15.842 100.478 16.766C101.122 17.676 101.983 18.131 103.061 18.131ZM117.023 20.252C115.973 20.252 115.056 20.042 114.272 19.622C113.488 19.202 112.879 18.53 112.445 17.606C112.025 16.682 111.815 15.471 111.815 13.973V6.266H114.251V14.162C114.251 15.156 114.363 15.947 114.587 16.535C114.825 17.109 115.154 17.522 115.574 17.774C115.994 18.012 116.477 18.131 117.023 18.131C117.583 18.131 118.073 18.012 118.493 17.774C118.927 17.522 119.263 17.109 119.501 16.535C119.753 15.947 119.879 15.156 119.879 14.162V6.266H122.21V13.973C122.21 15.471 122 16.682 121.58 17.606C121.16 18.53 120.558 19.202 119.774 19.622C119.004 20.042 118.087 20.252 117.023 20.252ZM125.639 20V6.266H129.314C131.414 6.266 133.052 6.833 134.228 7.967C135.404 9.101 135.992 10.802 135.992 13.07C135.992 15.352 135.411 17.081 134.249 18.257C133.087 19.419 131.484 20 129.44 20H125.639ZM128.075 18.026H129.146C130.532 18.026 131.603 17.627 132.359 16.829C133.115 16.017 133.493 14.764 133.493 13.07C133.493 11.39 133.115 10.165 132.359 9.395C131.603 8.625 130.532 8.24 129.146 8.24H128.075V18.026ZM144.518 20.252C143.286 20.252 142.18 19.979 141.2 19.433C140.22 18.887 139.45 18.089 138.89 17.039C138.33 15.975 138.05 14.687 138.05 13.175C138.05 11.677 138.337 10.396 138.911 9.332C139.485 8.254 140.262 7.435 141.242 6.875C142.222 6.301 143.321 6.014 144.539 6.014C145.519 6.014 146.345 6.196 147.017 6.56C147.703 6.91 148.263 7.309 148.697 7.757L147.395 9.332C147.045 8.996 146.653 8.716 146.219 8.492C145.799 8.254 145.267 8.135 144.623 8.135C143.405 8.135 142.418 8.583 141.662 9.479C140.92 10.361 140.549 11.572 140.549 13.112C140.549 14.68 140.906 15.912 141.62 16.808C142.334 17.69 143.377 18.131 144.749 18.131C145.141 18.131 145.512 18.082 145.862 17.984C146.212 17.872 146.499 17.718 146.723 17.522V14.561H144.119V12.566H148.907V18.614C148.445 19.076 147.829 19.468 147.059 19.79C146.303 20.098 145.456 20.252 144.518 20.252ZM154.641 12.692L154.158 14.372H157.665L157.182 12.692C156.958 11.964 156.741 11.215 156.531 10.445C156.335 9.675 156.139 8.912 155.943 8.156H155.859C155.677 8.926 155.481 9.696 155.271 10.466C155.075 11.222 154.865 11.964 154.641 12.692ZM150.042 20L154.515 6.266H157.371L161.844 20H159.282L158.211 16.283H153.591L152.52 20H150.042ZM163.537 20V6.266H166.036L170.32 13.994L171.727 16.913H171.811C171.755 16.213 171.685 15.45 171.601 14.624C171.531 13.798 171.496 13 171.496 12.23V6.266H173.827V20H171.328L167.044 12.272L165.637 9.353H165.553C165.609 10.081 165.672 10.844 165.742 11.642C165.826 12.44 165.868 13.224 165.868 13.994V20H163.537ZM180.09 20V8.324H176.121V6.266H186.495V8.324H182.526V20H180.09Z" fill="white"/>
<path d="M77.48 34.12C76.9067 34.12 76.3967 33.9867 75.95 33.72C75.5033 33.4467 75.1533 33.0567 74.9 32.55C74.6467 32.0433 74.52 31.4333 74.52 30.72C74.52 30.0133 74.65 29.4067 74.91 28.9C75.17 28.3933 75.5267 28.0033 75.98 27.73C76.4333 27.4567 76.95 27.32 77.53 27.32C77.9833 27.32 78.3633 27.4067 78.67 27.58C78.9833 27.7467 79.2333 27.93 79.42 28.13L78.96 28.67C78.7933 28.4967 78.6 28.35 78.38 28.23C78.16 28.11 77.8833 28.05 77.55 28.05C77.11 28.05 76.7267 28.16 76.4 28.38C76.0733 28.5933 75.82 28.8967 75.64 29.29C75.4667 29.6833 75.38 30.1533 75.38 30.7C75.38 31.5267 75.5667 32.1833 75.94 32.67C76.32 33.15 76.86 33.39 77.56 33.39C77.7933 33.39 78.0167 33.3567 78.23 33.29C78.4433 33.2167 78.6133 33.12 78.74 33V31.29H77.35V30.6H79.5V33.36C79.2933 33.58 79.0133 33.7633 78.66 33.91C78.3133 34.05 77.92 34.12 77.48 34.12ZM82.1119 34.12C81.7052 34.12 81.3652 34 81.0919 33.76C80.8252 33.5133 80.6919 33.1733 80.6919 32.74C80.6919 32.2067 80.9285 31.8 81.4019 31.52C81.8819 31.2333 82.6385 31.0333 83.6719 30.92C83.6719 30.7133 83.6419 30.5167 83.5819 30.33C83.5285 30.1433 83.4285 29.9933 83.2819 29.88C83.1419 29.76 82.9385 29.7 82.6719 29.7C82.3919 29.7 82.1285 29.7533 81.8819 29.86C81.6352 29.9667 81.4152 30.0867 81.2219 30.22L80.9019 29.65C81.1285 29.5033 81.4052 29.3633 81.7319 29.23C82.0652 29.09 82.4252 29.02 82.8119 29.02C83.4052 29.02 83.8352 29.2033 84.1019 29.57C84.3685 29.93 84.5019 30.4133 84.5019 31.02V34H83.8219L83.7519 33.42H83.7219C83.4952 33.6067 83.2452 33.77 82.9719 33.91C82.7052 34.05 82.4185 34.12 82.1119 34.12ZM82.3519 33.46C82.5852 33.46 82.8052 33.4033 83.0119 33.29C83.2185 33.1767 83.4385 33.0167 83.6719 32.81V31.46C82.8652 31.56 82.2985 31.71 81.9719 31.91C81.6519 32.11 81.4919 32.3667 81.4919 32.68C81.4919 32.9533 81.5752 33.1533 81.7419 33.28C81.9085 33.4 82.1119 33.46 82.3519 33.46ZM86.0309 34V29.14H86.7109L86.7809 29.84H86.8109C87.0443 29.6067 87.2909 29.4133 87.5509 29.26C87.8109 29.1 88.1076 29.02 88.4409 29.02C88.9543 29.02 89.3276 29.1833 89.5609 29.51C89.8009 29.83 89.9209 30.3 89.9209 30.92V34H89.1009V31.03C89.1009 30.5767 89.0276 30.2467 88.8809 30.04C88.7343 29.8333 88.5009 29.73 88.1809 29.73C87.9343 29.73 87.7109 29.7933 87.5109 29.92C87.3176 30.0467 87.0976 30.2333 86.8509 30.48V34H86.0309ZM93.0297 34.12C92.5097 34.12 92.1464 33.97 91.9397 33.67C91.7397 33.37 91.6397 32.98 91.6397 32.5V29.81H90.9197V29.19L91.6797 29.14L91.7797 27.78H92.4697V29.14H93.7797V29.81H92.4697V32.51C92.4697 32.81 92.523 33.0433 92.6297 33.21C92.743 33.37 92.9397 33.45 93.2197 33.45C93.3064 33.45 93.3997 33.4367 93.4997 33.41C93.5997 33.3767 93.6897 33.3467 93.7697 33.32L93.9297 33.94C93.7964 33.9867 93.6497 34.0267 93.4897 34.06C93.3364 34.1 93.183 34.12 93.0297 34.12ZM96.2133 34.12C95.6933 34.12 95.3299 33.97 95.1233 33.67C94.9233 33.37 94.8233 32.98 94.8233 32.5V29.81H94.1033V29.19L94.8633 29.14L94.9633 27.78H95.6533V29.14H96.9633V29.81H95.6533V32.51C95.6533 32.81 95.7066 33.0433 95.8133 33.21C95.9266 33.37 96.1233 33.45 96.4033 33.45C96.4899 33.45 96.5833 33.4367 96.6833 33.41C96.7833 33.3767 96.8733 33.3467 96.9533 33.32L97.1133 33.94C96.9799 33.9867 96.8333 34.0267 96.6733 34.06C96.5199 34.1 96.3666 34.12 96.2133 34.12ZM99.8455 34.12C99.4188 34.12 99.0321 34.02 98.6855 33.82C98.3388 33.62 98.0655 33.33 97.8655 32.95C97.6655 32.57 97.5655 32.1133 97.5655 31.58C97.5655 31.0333 97.6721 30.57 97.8855 30.19C98.1055 29.81 98.3921 29.52 98.7455 29.32C99.1055 29.12 99.4921 29.02 99.9055 29.02C100.225 29.02 100.499 29.0767 100.725 29.19C100.959 29.3033 101.159 29.4367 101.325 29.59L100.905 30.13C100.765 30.0033 100.615 29.9 100.455 29.82C100.302 29.74 100.129 29.7 99.9355 29.7C99.6421 29.7 99.3788 29.78 99.1455 29.94C98.9188 30.0933 98.7388 30.3133 98.6055 30.6C98.4788 30.88 98.4155 31.2067 98.4155 31.58C98.4155 32.1333 98.5521 32.5833 98.8255 32.93C99.1055 33.27 99.4688 33.44 99.9155 33.44C100.142 33.44 100.352 33.3933 100.545 33.3C100.739 33.2 100.909 33.0833 101.055 32.95L101.415 33.5C101.195 33.6933 100.952 33.8467 100.685 33.96C100.419 34.0667 100.139 34.12 99.8455 34.12ZM102.486 34V26.88H103.306V28.82L103.276 29.82C103.509 29.6 103.753 29.4133 104.006 29.26C104.266 29.1 104.563 29.02 104.896 29.02C105.409 29.02 105.783 29.1833 106.016 29.51C106.256 29.83 106.376 30.3 106.376 30.92V34H105.556V31.03C105.556 30.5767 105.483 30.2467 105.336 30.04C105.189 29.8333 104.956 29.73 104.636 29.73C104.389 29.73 104.166 29.7933 103.966 29.92C103.773 30.0467 103.553 30.2333 103.306 30.48V34H102.486ZM109.045 34.12C108.639 34.12 108.299 34 108.025 33.76C107.759 33.5133 107.625 33.1733 107.625 32.74C107.625 32.2067 107.862 31.8 108.335 31.52C108.815 31.2333 109.572 31.0333 110.605 30.92C110.605 30.7133 110.575 30.5167 110.515 30.33C110.462 30.1433 110.362 29.9933 110.215 29.88C110.075 29.76 109.872 29.7 109.605 29.7C109.325 29.7 109.062 29.7533 108.815 29.86C108.569 29.9667 108.349 30.0867 108.155 30.22L107.835 29.65C108.062 29.5033 108.339 29.3633 108.665 29.23C108.999 29.09 109.359 29.02 109.745 29.02C110.339 29.02 110.769 29.2033 111.035 29.57C111.302 29.93 111.435 30.4133 111.435 31.02V34H110.755L110.685 33.42H110.655C110.429 33.6067 110.179 33.77 109.905 33.91C109.639 34.05 109.352 34.12 109.045 34.12ZM109.285 33.46C109.519 33.46 109.739 33.4033 109.945 33.29C110.152 33.1767 110.372 33.0167 110.605 32.81V31.46C109.799 31.56 109.232 31.71 108.905 31.91C108.585 32.11 108.425 32.3667 108.425 32.68C108.425 32.9533 108.509 33.1533 108.675 33.28C108.842 33.4 109.045 33.46 109.285 33.46ZM112.965 34V29.14H113.645L113.715 30.02H113.745C113.911 29.7133 114.115 29.47 114.355 29.29C114.595 29.11 114.851 29.02 115.125 29.02C115.318 29.02 115.491 29.0533 115.645 29.12L115.485 29.84C115.405 29.8133 115.331 29.7933 115.265 29.78C115.198 29.7667 115.115 29.76 115.015 29.76C114.808 29.76 114.591 29.8433 114.365 30.01C114.145 30.1767 113.951 30.4667 113.785 30.88V34H112.965ZM117.961 34.12C117.441 34.12 117.078 33.97 116.871 33.67C116.671 33.37 116.571 32.98 116.571 32.5V29.81H115.851V29.19L116.611 29.14L116.711 27.78H117.401V29.14H118.711V29.81H117.401V32.51C117.401 32.81 117.455 33.0433 117.561 33.21C117.675 33.37 117.871 33.45 118.151 33.45C118.238 33.45 118.331 33.4367 118.431 33.41C118.531 33.3767 118.621 33.3467 118.701 33.32L118.861 33.94C118.728 33.9867 118.581 34.0267 118.421 34.06C118.268 34.1 118.115 34.12 117.961 34.12ZM122.882 28.86C122.882 29.04 122.909 29.2267 122.962 29.42C123.022 29.6133 123.099 29.81 123.192 30.01C123.492 29.81 123.752 29.6033 123.972 29.39C124.199 29.17 124.312 28.9167 124.312 28.63C124.312 28.4367 124.262 28.27 124.162 28.13C124.069 27.9833 123.912 27.91 123.692 27.91C123.446 27.91 123.249 28 123.102 28.18C122.956 28.36 122.882 28.5867 122.882 28.86ZM123.312 34.12C122.919 34.12 122.569 34.0433 122.262 33.89C121.962 33.73 121.729 33.5133 121.562 33.24C121.396 32.9667 121.312 32.6533 121.312 32.3C121.312 32.0067 121.372 31.7467 121.492 31.52C121.619 31.2933 121.779 31.09 121.972 30.91C122.166 30.73 122.376 30.5633 122.602 30.41C122.469 30.1367 122.362 29.8733 122.282 29.62C122.209 29.36 122.172 29.11 122.172 28.87C122.172 28.5767 122.236 28.3133 122.362 28.08C122.489 27.8467 122.666 27.6633 122.892 27.53C123.126 27.39 123.392 27.32 123.692 27.32C124.099 27.32 124.416 27.44 124.642 27.68C124.869 27.92 124.982 28.2333 124.982 28.62C124.982 28.9067 124.909 29.1633 124.762 29.39C124.616 29.6167 124.429 29.8233 124.202 30.01C123.982 30.1967 123.749 30.38 123.502 30.56C123.716 30.8933 123.969 31.22 124.262 31.54C124.556 31.8533 124.856 32.14 125.162 32.4C125.362 32.1267 125.539 31.83 125.692 31.51C125.852 31.1833 125.982 30.8333 126.082 30.46H126.852C126.726 30.8867 126.566 31.3 126.372 31.7C126.186 32.0933 125.962 32.4633 125.702 32.81C125.929 32.9633 126.146 33.0933 126.352 33.2C126.559 33.3067 126.752 33.3867 126.932 33.44L126.712 34.12C126.486 34.0533 126.242 33.96 125.982 33.84C125.729 33.7133 125.469 33.5567 125.202 33.37C124.956 33.5967 124.676 33.78 124.362 33.92C124.049 34.0533 123.699 34.12 123.312 34.12ZM122.112 32.25C122.112 32.6167 122.236 32.91 122.482 33.13C122.736 33.35 123.042 33.46 123.402 33.46C123.629 33.46 123.846 33.4133 124.052 33.32C124.266 33.2267 124.466 33.0967 124.652 32.93C124.332 32.65 124.022 32.3433 123.722 32.01C123.429 31.6767 123.166 31.3333 122.932 30.98C122.706 31.1667 122.512 31.3633 122.352 31.57C122.192 31.77 122.112 31.9967 122.112 32.25ZM131.348 34V28.14H129.368V27.44H134.168V28.14H132.188V34H131.348ZM135.657 34.12C135.25 34.12 134.91 34 134.637 33.76C134.37 33.5133 134.237 33.1733 134.237 32.74C134.237 32.2067 134.473 31.8 134.947 31.52C135.427 31.2333 136.183 31.0333 137.217 30.92C137.217 30.7133 137.187 30.5167 137.127 30.33C137.073 30.1433 136.973 29.9933 136.827 29.88C136.687 29.76 136.483 29.7 136.217 29.7C135.937 29.7 135.673 29.7533 135.427 29.86C135.18 29.9667 134.96 30.0867 134.767 30.22L134.447 29.65C134.673 29.5033 134.95 29.3633 135.277 29.23C135.61 29.09 135.97 29.02 136.357 29.02C136.95 29.02 137.38 29.2033 137.647 29.57C137.913 29.93 138.047 30.4133 138.047 31.02V34H137.367L137.297 33.42H137.267C137.04 33.6067 136.79 33.77 136.517 33.91C136.25 34.05 135.963 34.12 135.657 34.12ZM135.897 33.46C136.13 33.46 136.35 33.4033 136.557 33.29C136.763 33.1767 136.983 33.0167 137.217 32.81V31.46C136.41 31.56 135.843 31.71 135.517 31.91C135.197 32.11 135.037 32.3667 135.037 32.68C135.037 32.9533 135.12 33.1533 135.287 33.28C135.453 33.4 135.657 33.46 135.897 33.46ZM141.726 34.12C141.499 34.12 141.263 34.0667 141.016 33.96C140.776 33.8467 140.549 33.6933 140.336 33.5H140.306L140.236 34H139.576V26.88H140.396V28.82L140.376 29.7C140.596 29.5067 140.836 29.3467 141.096 29.22C141.363 29.0867 141.629 29.02 141.896 29.02C142.529 29.02 143.009 29.2433 143.336 29.69C143.663 30.1367 143.826 30.7367 143.826 31.49C143.826 32.0433 143.726 32.5167 143.526 32.91C143.333 33.3033 143.076 33.6033 142.756 33.81C142.443 34.0167 142.099 34.12 141.726 34.12ZM141.586 33.43C141.986 33.43 142.316 33.26 142.576 32.92C142.843 32.5733 142.976 32.1 142.976 31.5C142.976 30.9667 142.876 30.5367 142.676 30.21C142.483 29.8767 142.156 29.71 141.696 29.71C141.489 29.71 141.279 29.7667 141.066 29.88C140.853 29.9933 140.629 30.1567 140.396 30.37V32.92C140.609 33.1067 140.819 33.24 141.026 33.32C141.239 33.3933 141.426 33.43 141.586 33.43ZM145.973 34.12C145.667 34.12 145.443 34.0267 145.303 33.84C145.17 33.6467 145.103 33.3733 145.103 33.02V26.88H145.923V33.08C145.923 33.2067 145.947 33.3 145.993 33.36C146.04 33.4133 146.093 33.44 146.153 33.44C146.18 33.44 146.203 33.44 146.223 33.44C146.25 33.4333 146.287 33.4267 146.333 33.42L146.443 34.04C146.39 34.0667 146.327 34.0867 146.253 34.1C146.18 34.1133 146.087 34.12 145.973 34.12ZM149.622 34.12C149.189 34.12 148.795 34.02 148.442 33.82C148.089 33.6133 147.809 33.32 147.602 32.94C147.395 32.56 147.292 32.1067 147.292 31.58C147.292 31.0467 147.395 30.59 147.602 30.21C147.815 29.83 148.089 29.5367 148.422 29.33C148.755 29.1233 149.105 29.02 149.472 29.02C150.092 29.02 150.569 29.2267 150.902 29.64C151.242 30.0533 151.412 30.6067 151.412 31.3C151.412 31.3867 151.409 31.4733 151.402 31.56C151.402 31.64 151.395 31.71 151.382 31.77H148.102C148.135 32.2833 148.295 32.6933 148.582 33C148.875 33.3067 149.255 33.46 149.722 33.46C149.955 33.46 150.169 33.4267 150.362 33.36C150.562 33.2867 150.752 33.1933 150.932 33.08L151.222 33.62C151.015 33.7533 150.779 33.87 150.512 33.97C150.252 34.07 149.955 34.12 149.622 34.12ZM148.092 31.18H150.692C150.692 30.6867 150.585 30.3133 150.372 30.06C150.165 29.8 149.872 29.67 149.492 29.67C149.152 29.67 148.845 29.8033 148.572 30.07C148.305 30.33 148.145 30.7 148.092 31.18Z" fill="white"/>
</svg>
